{
  "artifactGenerations" : [ ],
  "artifactId" : "test-proj",
  "groupId" : "org.finos.legend.test",
  "metamodelDependencies" : [ ],
  "projectDependencies" : [ ],
  "projectId" : "45557727",
  "projectStructureVersion" : {
    "extensionVersion" : 2,
    "version" : 12
  }
}